…
Thus, the reasulting dataframe `accel_df` consists of $5*7*24*60=50400$
records. Each record contains activity of the male during a minute’s
period of time, stored in variable `activity`. Other varibles in the
record shows information for the one-minute time period. The following
code creates a tgable for the total activity for each day, and made a
plot.

``` r
accel_df %>%
  group_by(day_id) %>%
  summarise(total_activity = sum(activity))
```

    ## # A tibble: 35 × 2
    ##    day_id total_activity
    ##     <dbl>          <dbl>
    ##  1      1        480543.
    ##  2      2         78828.
    ##  3      3        376254 
    ##  4      4        631105 
    ##  5      5        355924.
    ##  6      6        307094.
    ##  7      7        340115.
    ##  8      8        568839 
    ##  9      9        295431 
    ## 10     10        607175 
    ## # … with 25 more rows
…
